%YAML 1.1
%TAG !u! tag:unity3d.com,2011:
--- !u!114 &11400000
MonoBehaviour:
  m_ObjectHideFlags: 0
  m_CorrespondingSourceObject: {fileID: 0}
  m_PrefabInstance: {fileID: 0}
  m_PrefabAsset: {fileID: 0}
  m_GameObject: {fileID: 0}
  m_Enabled: 1
  m_EditorHideFlags: 0
  m_Script: {fileID: 11500000, guid: ba522b5b8fe14472bb6df36b514ada88, type: 3}
  m_Name: BossSpaceship
  m_EditorClassIdentifier: 
  health: 20
  damage: 1
  score: 1500
  killableByBorders: 0
  dmgType: 1
  absorbDmg: 0
  maxSpeed: 0.5
  slowdownSpeed: 100
  gunCooldown: 0
  gunBulletSpeed: 0.9
  size: {x: 0.8, y: 0.8}
  shell: {fileID: 11400000, guid: be1ec2b67c49c46b5bce2cee950f7da9, type: 2}
