%YAML 1.1
%TAG !u! tag:unity3d.com,2011:
--- !u!114 &11400000
MonoBehaviour:
  m_ObjectHideFlags: 0
  m_CorrespondingSourceObject: {fileID: 0}
  m_PrefabInstance: {fileID: 0}
  m_PrefabAsset: {fileID: 0}
  m_GameObject: {fileID: 0}
  m_Enabled: 1
  m_EditorHideFlags: 0
  m_Script: {fileID: 11500000, guid: ba522b5b8fe14472bb6df36b514ada88, type: 3}
  m_Name: MonsterSpaceShip1
  m_EditorClassIdentifier: 
  health: 1
  damage: 1
  score: 10
  killableByBorders: 0
  dmgType: 1
  absorbDmg: 0
  maxSpeed: 0.1
  slowdownSpeed: 100
  gunCooldown: 0.8
  gunBulletSpeed: 1.2
  size: {x: 0.26, y: 0.2}
  shell: {fileID: 11400000, guid: 5c5edb61e686041ab8bdf6f7595de4a5, type: 2}
