%YAML 1.1
%TAG !u! tag:unity3d.com,2011:
--- !u!114 &11400000
MonoBehaviour:
  m_ObjectHideFlags: 0
  m_CorrespondingSourceObject: {fileID: 0}
  m_PrefabInstance: {fileID: 0}
  m_PrefabAsset: {fileID: 0}
  m_GameObject: {fileID: 0}
  m_Enabled: 1
  m_EditorHideFlags: 0
  m_Script: {fileID: 11500000, guid: fbe965c0ed224557ae761f4e1a20fc5d, type: 3}
  m_Name: BossShipshell
  m_EditorClassIdentifier: 
  shellSprite: {fileID: 21300000, guid: 6da6b283685ef40d4b36fc103136c14c, type: 3}
  type: 6
